[
  {
    "model": "InitData.Direktorat",
    "pk": 1,
    "fields": {
      "direktorat": "Dit. Reskrimum",
      "deskripsi": "Direktorat Reserse Kriminal Umum"
    }
  },
  {
    "model": "InitData.Direktorat",
    "pk": 2,
    "fields": {
      "direktorat": "Dit. Reskrimsus",
      "deskripsi": "Direktorat Reserse Kriminal Khusus"
    }
  },
  {
    "model": "InitData.Direktorat",
    "pk": 3,
    "fields": {
      "direktorat": "Dit. Resnarkoba",
      "deskripsi": "Direktorat Reserse Narkoba"
    }
  }
]
