[
  {
    "model": "InitData.KepalaSiaga",
    "pk": 1,
    "fields": {
      "jabatan": "KA. SIAGA I"
    }
  },
  {
    "model": "InitData.KepalaSiaga",
    "pk": 2,
    "fields": {
      "jabatan": "KA. SIAGA II"
    }
  },
  {
    "model": "InitData.KepalaSiaga",
    "pk": 3,
    "fields": {
      "jabatan": "KA. SIAGA III"
    }
  },
  {
    "model": "InitData.KepalaSiaga",
    "pk": 4,
    "fields": {
      "jabatan": "PA. SIAGA"
    }
  },
  {
    "model": "InitData.KepalaSiaga",
    "pk": 5,
    "fields": {
      "jabatan": "PAYANMAS"
    }
  },
  {
    "model": "InitData.KepalaSiaga",
    "pk": 6,
    "fields": {
      "jabatan": "KA. SPKT"
    }
  },
  {
    "model": "InitData.KepalaSiaga",
    "pk": 7,
    "fields": {
      "jabatan": "KAPOLSUBSEKTOR"
    }
  },
  {
    "model": "InitData.KepalaSiaga",
    "pk": 8,
    "fields": {
      "jabatan": "KANIT. SPKT"
    }
  }
]
